^C:\Users\Administrator\Desktop\90th_SRTeamB\branches\Titan0121\Engine\Utility\Include\Utility.vcxproj
C:\Users\Administrator\Desktop\90th_SRTeamB\branches\Titan0121\Engine\Utility\Bin\Utility.lib
C:\Users\Administrator\Desktop\90th_SRTeamB\branches\Titan0121\Engine\Utility\Bin\Utility.exp
^C:\Users\Administrator\Desktop\90th_SRTeamB\branches\Titan0121\Engine\Utility\Include\Utility.vcxproj
C:\Users\Administrator\Desktop\90th_SRTeamB\branches\Titan0121\Engine\Utility\Bin\Utility.lib
C:\Users\Administrator\Desktop\90th_SRTeamB\branches\Titan0121\Engine\Utility\Bin\Utility.exp
^C:\Users\Administrator\Desktop\90th_SRTeamB\branches\Titan0121\Engine\Utility\Include\Utility.vcxproj
C:\Users\Administrator\Desktop\90th_SRTeamB\branches\Titan0121\Engine\Utility\Bin\Utility.lib
C:\Users\Administrator\Desktop\90th_SRTeamB\branches\Titan0121\Engine\Utility\Bin\Utility.exp
^C:\Users\Administrator\Desktop\90th_SRTeamB\branches\Titan0121\Engine\Utility\Include\Utility.vcxproj
C:\Users\Administrator\Desktop\90th_SRTeamB\branches\Titan0121\Engine\Utility\Bin\Utility.lib
C:\Users\Administrator\Desktop\90th_SRTeamB\branches\Titan0121\Engine\Utility\Bin\Utility.exp
^C:\Users\Administrator\Desktop\90th_SRTeamB\branches\Titan0121\Engine\Utility\Include\Utility.vcxproj
C:\Users\Administrator\Desktop\90th_SRTeamB\branches\Titan0121\Engine\Utility\Bin\Utility.lib
C:\Users\Administrator\Desktop\90th_SRTeamB\branches\Titan0121\Engine\Utility\Bin\Utility.exp
^C:\Users\Administrator\Desktop\90th_SRTeamB\branches\Titan0121\Engine\Utility\Include\Utility.vcxproj
C:\Users\Administrator\Desktop\90th_SRTeamB\branches\Titan0121\Engine\Utility\Bin\Utility.lib
C:\Users\Administrator\Desktop\90th_SRTeamB\branches\Titan0121\Engine\Utility\Bin\Utility.exp
^C:\Users\Administrator\Desktop\90th_SRTeamB\branches\Titan0121\Engine\Utility\Include\Utility.vcxproj
C:\Users\Administrator\Desktop\90th_SRTeamB\branches\Titan0121\Engine\Utility\Bin\Utility.lib
C:\Users\Administrator\Desktop\90th_SRTeamB\branches\Titan0121\Engine\Utility\Bin\Utility.exp
^C:\Users\Administrator\Desktop\90th_SRTeamB\branches\Titan0121\Engine\Utility\Include\Utility.vcxproj
C:\Users\Administrator\Desktop\90th_SRTeamB\branches\Titan0121\Engine\Utility\Bin\Utility.lib
C:\Users\Administrator\Desktop\90th_SRTeamB\branches\Titan0121\Engine\Utility\Bin\Utility.exp
^C:\Users\Administrator\Desktop\90th_SRTeamB\branches\Titan0121\Engine\Utility\Include\Utility.vcxproj
C:\Users\Administrator\Desktop\90th_SRTeamB\branches\Titan0121\Engine\Utility\Bin\Utility.lib
C:\Users\Administrator\Desktop\90th_SRTeamB\branches\Titan0121\Engine\Utility\Bin\Utility.exp
^C:\Users\Administrator\Desktop\90th_SRTeamB\branches\Titan0121\Engine\Utility\Include\Utility.vcxproj
C:\Users\Administrator\Desktop\90th_SRTeamB\branches\Titan0121\Engine\Utility\Bin\Utility.lib
C:\Users\Administrator\Desktop\90th_SRTeamB\branches\Titan0121\Engine\Utility\Bin\Utility.exp
^C:\Users\Administrator\Desktop\90th_SRTeamB\branches\Titan0121\Engine\Utility\Include\Utility.vcxproj
C:\Users\Administrator\Desktop\90th_SRTeamB\branches\Titan0121\Engine\Utility\Bin\Utility.lib
C:\Users\Administrator\Desktop\90th_SRTeamB\branches\Titan0121\Engine\Utility\Bin\Utility.exp
^C:\Users\Administrator\Desktop\90th_SRTeamB\branches\Titan0121\Engine\Utility\Include\Utility.vcxproj
C:\Users\Administrator\Desktop\90th_SRTeamB\branches\Titan0121\Engine\Utility\Bin\Utility.lib
C:\Users\Administrator\Desktop\90th_SRTeamB\branches\Titan0121\Engine\Utility\Bin\Utility.exp
^C:\Users\Administrator\Desktop\90th_SRTeamB\branches\Titan0121\Engine\Utility\Include\Utility.vcxproj
C:\Users\Administrator\Desktop\90th_SRTeamB\branches\Titan0121\Engine\Utility\Bin\Utility.lib
C:\Users\Administrator\Desktop\90th_SRTeamB\branches\Titan0121\Engine\Utility\Bin\Utility.exp
^C:\Users\Administrator\Desktop\90th_SRTeamB\branches\Titan0121\Engine\Utility\Include\Utility.vcxproj
C:\Users\Administrator\Desktop\90th_SRTeamB\branches\Titan0121\Engine\Utility\Bin\Utility.lib
C:\Users\Administrator\Desktop\90th_SRTeamB\branches\Titan0121\Engine\Utility\Bin\Utility.exp
^C:\Users\Administrator\Desktop\90th_SRTeamB\branches\Titan0121\Engine\Utility\Include\Utility.vcxproj
C:\Users\Administrator\Desktop\90th_SRTeamB\branches\Titan0121\Engine\Utility\Bin\Utility.lib
C:\Users\Administrator\Desktop\90th_SRTeamB\branches\Titan0121\Engine\Utility\Bin\Utility.exp
^C:\Users\Administrator\Desktop\90th_SRTeamB\branches\Titan0121\Engine\Utility\Include\Utility.vcxproj
C:\Users\Administrator\Desktop\90th_SRTeamB\branches\Titan0121\Engine\Utility\Bin\Utility.lib
C:\Users\Administrator\Desktop\90th_SRTeamB\branches\Titan0121\Engine\Utility\Bin\Utility.exp
