^C:\USERS\ADMINISTRATOR\DESKTOP\90TH_SRTEAMB\BRANCHES\CLIENT 플레이어 이동 설정. (01041612)\TITANSOULS\ENGINE\UTILITY\INCLUDE\RELEASE\CAMERA.OBJ|C:\USERS\ADMINISTRATOR\DESKTOP\90TH_SRTEAMB\BRANCHES\CLIENT 플레이어 이동 설정. (01041612)\TITANSOULS\ENGINE\UTILITY\INCLUDE\RELEASE\COLLISION.OBJ|C:\USERS\ADMINISTRATOR\DESKTOP\90TH_SRTEAMB\BRANCHES\CLIENT 플레이어 이동 설정. (01041612)\TITANSOULS\ENGINE\UTILITY\INCLUDE\RELEASE\COMPONENT.OBJ|C:\USERS\ADMINISTRATOR\DESKTOP\90TH_SRTEAMB\BRANCHES\CLIENT 플레이어 이동 설정. (01041612)\TITANSOULS\ENGINE\UTILITY\INCLUDE\RELEASE\GAMEOBJECT.OBJ|C:\USERS\ADMINISTRATOR\DESKTOP\90TH_SRTEAMB\BRANCHES\CLIENT 플레이어 이동 설정. (01041612)\TITANSOULS\ENGINE\UTILITY\INCLUDE\RELEASE\INFOSUBJECT.OBJ|C:\USERS\ADMINISTRATOR\DESKTOP\90TH_SRTEAMB\BRANCHES\CLIENT 플레이어 이동 설정. (01041612)\TITANSOULS\ENGINE\UTILITY\INCLUDE\RELEASE\LAYER.OBJ|C:\USERS\ADMINISTRATOR\DESKTOP\90TH_SRTEAMB\BRANCHES\CLIENT 플레이어 이동 설정. (01041612)\TITANSOULS\ENGINE\UTILITY\INCLUDE\RELEASE\MANAGEMENT.OBJ|C:\USERS\ADMINISTRATOR\DESKTOP\90TH_SRTEAMB\BRANCHES\CLIENT 플레이어 이동 설정. (01041612)\TITANSOULS\ENGINE\UTILITY\INCLUDE\RELEASE\MATHMGR.OBJ|C:\USERS\ADMINISTRATOR\DESKTOP\90TH_SRTEAMB\BRANCHES\CLIENT 플레이어 이동 설정. (01041612)\TITANSOULS\ENGINE\UTILITY\INCLUDE\RELEASE\OBSERVER.OBJ|C:\USERS\ADMINISTRATOR\DESKTOP\90TH_SRTEAMB\BRANCHES\CLIENT 플레이어 이동 설정. (01041612)\TITANSOULS\ENGINE\UTILITY\INCLUDE\RELEASE\PARTICLESYSTEM.OBJ|C:\USERS\ADMINISTRATOR\DESKTOP\90TH_SRTEAMB\BRANCHES\CLIENT 플레이어 이동 설정. (01041612)\TITANSOULS\ENGINE\UTILITY\INCLUDE\RELEASE\PIPELINE.OBJ|C:\USERS\ADMINISTRATOR\DESKTOP\90TH_SRTEAMB\BRANCHES\CLIENT 플레이어 이동 설정. (01041612)\TITANSOULS\ENGINE\UTILITY\INCLUDE\RELEASE\PLAYER_STATE.OBJ|C:\USERS\ADMINISTRATOR\DESKTOP\90TH_SRTEAMB\BRANCHES\CLIENT 플레이어 이동 설정. (01041612)\TITANSOULS\ENGINE\UTILITY\INCLUDE\RELEASE\RENDERER.OBJ|C:\USERS\ADMINISTRATOR\DESKTOP\90TH_SRTEAMB\BRANCHES\CLIENT 플레이어 이동 설정. (01041612)\TITANSOULS\ENGINE\UTILITY\INCLUDE\RELEASE\SCENE.OBJ|C:\USERS\ADMINISTRATOR\DESKTOP\90TH_SRTEAMB\BRANCHES\CLIENT 플레이어 이동 설정. (01041612)\TITANSOULS\ENGINE\UTILITY\INCLUDE\RELEASE\SUBJECT.OBJ|C:\USERS\ADMINISTRATOR\DESKTOP\90TH_SRTEAMB\BRANCHES\CLIENT 플레이어 이동 설정. (01041612)\TITANSOULS\ENGINE\UTILITY\INCLUDE\RELEASE\TRANSFORM.OBJ
/OUT:"../BIN\UTILITY.DLL" /INCREMENTAL:NO /NOLOGO /LIBPATH:../../../REFERENCE/LIBRARIES /LIBPATH:"C:\PROGRAM FILES (X86)\VISUAL LEAK DETECTOR\LIB\WIN32" SYSTEM.LIB RESOURCES.LIB D3D9.LIB D3DX9.LIB DXGUID.LIB KERNEL32.LIB USER32.LIB GDI32.LIB WINSPOOL.LIB COMDLG32.LIB ADVAPI32.LIB SHELL32.LIB OLE32.LIB OLEAUT32.LIB UUID.LIB ODBC32.LIB ODBCCP32.LIB KERNEL32.LIB USER32.LIB GDI32.LIB WINSPOOL.LIB COMDLG32.LIB ADVAPI32.LIB SHELL32.LIB OLE32.LIB OLEAUT32.LIB UUID.LIB ODBC32.LIB ODBCCP32.LIB KERNEL32.LIB USER32.LIB GDI32.LIB WINSPOOL.LIB COMDLG32.LIB ADVAPI32.LIB SHELL32.LIB OLE32.LIB OLEAUT32.LIB UUID.LIB ODBC32.LIB ODBCCP32.LIB /MANIFEST /MANIFESTUAC:"level='asInvoker' uiAccess='false'" /manifest:embed /DEBUG /PDB:"../BIN\UTILITY.PDB" /SUBSYSTEM:WINDOWS /LARGEADDRESSAWARE /OPT:REF /OPT:ICF /LTCG:incremental /TLBID:1 /DYNAMICBASE /NXCOMPAT /IMPLIB:"../BIN\UTILITY.LIB" /MACHINE:X86 /SAFESEH /DLL RELEASE\CAMERA.OBJRELEASE\COLLISION.OBJRELEASE\COMPONENT.OBJRELEASE\GAMEOBJECT.OBJRELEASE\INFOSUBJECT.OBJRELEASE\LAYER.OBJRELEASE\MANAGEMENT.OBJRELEASE\MATHMGR.OBJRELEASE\OBSERVER.OBJRELEASE\PARTICLESYSTEM.OBJRELEASE\PIPELINE.OBJRELEASE\PLAYER_STATE.OBJRELEASE\RENDERER.OBJRELEASE\SCENE.OBJRELEASE\SUBJECT.OBJRELEASE\TRANSFORM.OBJ
^C:\USERS\JEONGSEONGHO\DESKTOP\TITANSOULS\ENGINE\UTILITY\INCLUDE\RELEASE\CAMERA.OBJ|C:\USERS\JEONGSEONGHO\DESKTOP\TITANSOULS\ENGINE\UTILITY\INCLUDE\RELEASE\COLLISION.OBJ|C:\USERS\JEONGSEONGHO\DESKTOP\TITANSOULS\ENGINE\UTILITY\INCLUDE\RELEASE\COMPONENT.OBJ|C:\USERS\JEONGSEONGHO\DESKTOP\TITANSOULS\ENGINE\UTILITY\INCLUDE\RELEASE\GAMEOBJECT.OBJ|C:\USERS\JEONGSEONGHO\DESKTOP\TITANSOULS\ENGINE\UTILITY\INCLUDE\RELEASE\INFOSUBJECT.OBJ|C:\USERS\JEONGSEONGHO\DESKTOP\TITANSOULS\ENGINE\UTILITY\INCLUDE\RELEASE\LAYER.OBJ|C:\USERS\JEONGSEONGHO\DESKTOP\TITANSOULS\ENGINE\UTILITY\INCLUDE\RELEASE\MANAGEMENT.OBJ|C:\USERS\JEONGSEONGHO\DESKTOP\TITANSOULS\ENGINE\UTILITY\INCLUDE\RELEASE\MATHMGR.OBJ|C:\USERS\JEONGSEONGHO\DESKTOP\TITANSOULS\ENGINE\UTILITY\INCLUDE\RELEASE\OBSERVER.OBJ|C:\USERS\JEONGSEONGHO\DESKTOP\TITANSOULS\ENGINE\UTILITY\INCLUDE\RELEASE\PARTICLESYSTEM.OBJ|C:\USERS\JEONGSEONGHO\DESKTOP\TITANSOULS\ENGINE\UTILITY\INCLUDE\RELEASE\PIPELINE.OBJ|C:\USERS\JEONGSEONGHO\DESKTOP\TITANSOULS\ENGINE\UTILITY\INCLUDE\RELEASE\PLAYER_STATE.OBJ|C:\USERS\JEONGSEONGHO\DESKTOP\TITANSOULS\ENGINE\UTILITY\INCLUDE\RELEASE\RENDERER.OBJ|C:\USERS\JEONGSEONGHO\DESKTOP\TITANSOULS\ENGINE\UTILITY\INCLUDE\RELEASE\SCENE.OBJ|C:\USERS\JEONGSEONGHO\DESKTOP\TITANSOULS\ENGINE\UTILITY\INCLUDE\RELEASE\SUBJECT.OBJ|C:\USERS\JEONGSEONGHO\DESKTOP\TITANSOULS\ENGINE\UTILITY\INCLUDE\RELEASE\TRANSFORM.OBJ
/OUT:"../BIN\UTILITY.DLL" /INCREMENTAL:NO /NOLOGO /LIBPATH:../../../REFERENCE/LIBRARIES /LIBPATH:"C:\PROGRAM FILES (X86)\VISUAL LEAK DETECTOR\LIB\WIN32" SYSTEM.LIB RESOURCES.LIB D3D9.LIB D3DX9.LIB DXGUID.LIB KERNEL32.LIB USER32.LIB GDI32.LIB WINSPOOL.LIB COMDLG32.LIB ADVAPI32.LIB SHELL32.LIB OLE32.LIB OLEAUT32.LIB UUID.LIB ODBC32.LIB ODBCCP32.LIB KERNEL32.LIB USER32.LIB GDI32.LIB WINSPOOL.LIB COMDLG32.LIB ADVAPI32.LIB SHELL32.LIB OLE32.LIB OLEAUT32.LIB UUID.LIB ODBC32.LIB ODBCCP32.LIB KERNEL32.LIB USER32.LIB GDI32.LIB WINSPOOL.LIB COMDLG32.LIB ADVAPI32.LIB SHELL32.LIB OLE32.LIB OLEAUT32.LIB UUID.LIB ODBC32.LIB ODBCCP32.LIB /MANIFEST /MANIFESTUAC:"level='asInvoker' uiAccess='false'" /manifest:embed /DEBUG /PDB:"../BIN\UTILITY.PDB" /SUBSYSTEM:WINDOWS /LARGEADDRESSAWARE /OPT:REF /OPT:ICF /LTCG:incremental /TLBID:1 /DYNAMICBASE /NXCOMPAT /IMPLIB:"../BIN\UTILITY.LIB" /MACHINE:X86 /SAFESEH /DLL RELEASE\CAMERA.OBJRELEASE\COLLISION.OBJRELEASE\COMPONENT.OBJRELEASE\GAMEOBJECT.OBJRELEASE\INFOSUBJECT.OBJRELEASE\LAYER.OBJRELEASE\MANAGEMENT.OBJRELEASE\MATHMGR.OBJRELEASE\OBSERVER.OBJRELEASE\PARTICLESYSTEM.OBJRELEASE\PIPELINE.OBJRELEASE\PLAYER_STATE.OBJRELEASE\RENDERER.OBJRELEASE\SCENE.OBJRELEASE\SUBJECT.OBJRELEASE\TRANSFORM.OBJ
^C:\USERS\JEONGSEONGHO\DESKTOP\TITANSOULSDD\ENGINE\UTILITY\INCLUDE\RELEASE\CAMERA.OBJ|C:\USERS\JEONGSEONGHO\DESKTOP\TITANSOULSDD\ENGINE\UTILITY\INCLUDE\RELEASE\COLLISION.OBJ|C:\USERS\JEONGSEONGHO\DESKTOP\TITANSOULSDD\ENGINE\UTILITY\INCLUDE\RELEASE\COMPONENT.OBJ|C:\USERS\JEONGSEONGHO\DESKTOP\TITANSOULSDD\ENGINE\UTILITY\INCLUDE\RELEASE\GAMEOBJECT.OBJ|C:\USERS\JEONGSEONGHO\DESKTOP\TITANSOULSDD\ENGINE\UTILITY\INCLUDE\RELEASE\INFOSUBJECT.OBJ|C:\USERS\JEONGSEONGHO\DESKTOP\TITANSOULSDD\ENGINE\UTILITY\INCLUDE\RELEASE\LAYER.OBJ|C:\USERS\JEONGSEONGHO\DESKTOP\TITANSOULSDD\ENGINE\UTILITY\INCLUDE\RELEASE\MANAGEMENT.OBJ|C:\USERS\JEONGSEONGHO\DESKTOP\TITANSOULSDD\ENGINE\UTILITY\INCLUDE\RELEASE\MATHMGR.OBJ|C:\USERS\JEONGSEONGHO\DESKTOP\TITANSOULSDD\ENGINE\UTILITY\INCLUDE\RELEASE\OBSERVER.OBJ|C:\USERS\JEONGSEONGHO\DESKTOP\TITANSOULSDD\ENGINE\UTILITY\INCLUDE\RELEASE\PARTICLESYSTEM.OBJ|C:\USERS\JEONGSEONGHO\DESKTOP\TITANSOULSDD\ENGINE\UTILITY\INCLUDE\RELEASE\PIPELINE.OBJ|C:\USERS\JEONGSEONGHO\DESKTOP\TITANSOULSDD\ENGINE\UTILITY\INCLUDE\RELEASE\PLAYER_STATE.OBJ|C:\USERS\JEONGSEONGHO\DESKTOP\TITANSOULSDD\ENGINE\UTILITY\INCLUDE\RELEASE\RENDERER.OBJ|C:\USERS\JEONGSEONGHO\DESKTOP\TITANSOULSDD\ENGINE\UTILITY\INCLUDE\RELEASE\SCENE.OBJ|C:\USERS\JEONGSEONGHO\DESKTOP\TITANSOULSDD\ENGINE\UTILITY\INCLUDE\RELEASE\SUBJECT.OBJ|C:\USERS\JEONGSEONGHO\DESKTOP\TITANSOULSDD\ENGINE\UTILITY\INCLUDE\RELEASE\TRANSFORM.OBJ
/OUT:"../BIN\UTILITY.DLL" /INCREMENTAL:NO /NOLOGO /LIBPATH:../../../REFERENCE/LIBRARIES /LIBPATH:"C:\PROGRAM FILES (X86)\VISUAL LEAK DETECTOR\LIB\WIN32" SYSTEM.LIB RESOURCES.LIB D3D9.LIB D3DX9.LIB DXGUID.LIB KERNEL32.LIB USER32.LIB GDI32.LIB WINSPOOL.LIB COMDLG32.LIB ADVAPI32.LIB SHELL32.LIB OLE32.LIB OLEAUT32.LIB UUID.LIB ODBC32.LIB ODBCCP32.LIB KERNEL32.LIB USER32.LIB GDI32.LIB WINSPOOL.LIB COMDLG32.LIB ADVAPI32.LIB SHELL32.LIB OLE32.LIB OLEAUT32.LIB UUID.LIB ODBC32.LIB ODBCCP32.LIB KERNEL32.LIB USER32.LIB GDI32.LIB WINSPOOL.LIB COMDLG32.LIB ADVAPI32.LIB SHELL32.LIB OLE32.LIB OLEAUT32.LIB UUID.LIB ODBC32.LIB ODBCCP32.LIB /MANIFEST /MANIFESTUAC:"level='asInvoker' uiAccess='false'" /manifest:embed /DEBUG /PDB:"../BIN\UTILITY.PDB" /SUBSYSTEM:WINDOWS /LARGEADDRESSAWARE /OPT:REF /OPT:ICF /LTCG:incremental /TLBID:1 /DYNAMICBASE /NXCOMPAT /IMPLIB:"../BIN\UTILITY.LIB" /MACHINE:X86 /SAFESEH /DLL RELEASE\CAMERA.OBJRELEASE\COLLISION.OBJRELEASE\COMPONENT.OBJRELEASE\GAMEOBJECT.OBJRELEASE\INFOSUBJECT.OBJRELEASE\LAYER.OBJRELEASE\MANAGEMENT.OBJRELEASE\MATHMGR.OBJRELEASE\OBSERVER.OBJRELEASE\PARTICLESYSTEM.OBJRELEASE\PIPELINE.OBJRELEASE\PLAYER_STATE.OBJRELEASE\RENDERER.OBJRELEASE\SCENE.OBJRELEASE\SUBJECT.OBJRELEASE\TRANSFORM.OBJ
^C:\USERS\ADMINISTRATOR\DESKTOP\TITANSOULS (2)\ENGINE\UTILITY\INCLUDE\RELEASE\CAMERA.OBJ|C:\USERS\ADMINISTRATOR\DESKTOP\TITANSOULS (2)\ENGINE\UTILITY\INCLUDE\RELEASE\COLLISION.OBJ|C:\USERS\ADMINISTRATOR\DESKTOP\TITANSOULS (2)\ENGINE\UTILITY\INCLUDE\RELEASE\COMPONENT.OBJ|C:\USERS\ADMINISTRATOR\DESKTOP\TITANSOULS (2)\ENGINE\UTILITY\INCLUDE\RELEASE\GAMEOBJECT.OBJ|C:\USERS\ADMINISTRATOR\DESKTOP\TITANSOULS (2)\ENGINE\UTILITY\INCLUDE\RELEASE\INFOSUBJECT.OBJ|C:\USERS\ADMINISTRATOR\DESKTOP\TITANSOULS (2)\ENGINE\UTILITY\INCLUDE\RELEASE\LAYER.OBJ|C:\USERS\ADMINISTRATOR\DESKTOP\TITANSOULS (2)\ENGINE\UTILITY\INCLUDE\RELEASE\MANAGEMENT.OBJ|C:\USERS\ADMINISTRATOR\DESKTOP\TITANSOULS (2)\ENGINE\UTILITY\INCLUDE\RELEASE\MATHMGR.OBJ|C:\USERS\ADMINISTRATOR\DESKTOP\TITANSOULS (2)\ENGINE\UTILITY\INCLUDE\RELEASE\OBSERVER.OBJ|C:\USERS\ADMINISTRATOR\DESKTOP\TITANSOULS (2)\ENGINE\UTILITY\INCLUDE\RELEASE\PARTICLESYSTEM.OBJ|C:\USERS\ADMINISTRATOR\DESKTOP\TITANSOULS (2)\ENGINE\UTILITY\INCLUDE\RELEASE\PIPELINE.OBJ|C:\USERS\ADMINISTRATOR\DESKTOP\TITANSOULS (2)\ENGINE\UTILITY\INCLUDE\RELEASE\PLAYER_STATE.OBJ|C:\USERS\ADMINISTRATOR\DESKTOP\TITANSOULS (2)\ENGINE\UTILITY\INCLUDE\RELEASE\RENDERER.OBJ|C:\USERS\ADMINISTRATOR\DESKTOP\TITANSOULS (2)\ENGINE\UTILITY\INCLUDE\RELEASE\SCENE.OBJ|C:\USERS\ADMINISTRATOR\DESKTOP\TITANSOULS (2)\ENGINE\UTILITY\INCLUDE\RELEASE\SUBJECT.OBJ|C:\USERS\ADMINISTRATOR\DESKTOP\TITANSOULS (2)\ENGINE\UTILITY\INCLUDE\RELEASE\TRANSFORM.OBJ
/OUT:"../BIN\UTILITY.DLL" /INCREMENTAL:NO /NOLOGO /LIBPATH:../../../REFERENCE/LIBRARIES /LIBPATH:"C:\PROGRAM FILES (X86)\VISUAL LEAK DETECTOR\LIB\WIN32" SYSTEM.LIB RESOURCES.LIB D3D9.LIB D3DX9.LIB DXGUID.LIB KERNEL32.LIB USER32.LIB GDI32.LIB WINSPOOL.LIB COMDLG32.LIB ADVAPI32.LIB SHELL32.LIB OLE32.LIB OLEAUT32.LIB UUID.LIB ODBC32.LIB ODBCCP32.LIB KERNEL32.LIB USER32.LIB GDI32.LIB WINSPOOL.LIB COMDLG32.LIB ADVAPI32.LIB SHELL32.LIB OLE32.LIB OLEAUT32.LIB UUID.LIB ODBC32.LIB ODBCCP32.LIB KERNEL32.LIB USER32.LIB GDI32.LIB WINSPOOL.LIB COMDLG32.LIB ADVAPI32.LIB SHELL32.LIB OLE32.LIB OLEAUT32.LIB UUID.LIB ODBC32.LIB ODBCCP32.LIB /MANIFEST /MANIFESTUAC:"level='asInvoker' uiAccess='false'" /manifest:embed /DEBUG /PDB:"../BIN\UTILITY.PDB" /SUBSYSTEM:WINDOWS /LARGEADDRESSAWARE /OPT:REF /OPT:ICF /LTCG:incremental /TLBID:1 /DYNAMICBASE /NXCOMPAT /IMPLIB:"../BIN\UTILITY.LIB" /MACHINE:X86 /SAFESEH /DLL RELEASE\CAMERA.OBJRELEASE\COLLISION.OBJRELEASE\COMPONENT.OBJRELEASE\GAMEOBJECT.OBJRELEASE\INFOSUBJECT.OBJRELEASE\LAYER.OBJRELEASE\MANAGEMENT.OBJRELEASE\MATHMGR.OBJRELEASE\OBSERVER.OBJRELEASE\PARTICLESYSTEM.OBJRELEASE\PIPELINE.OBJRELEASE\PLAYER_STATE.OBJRELEASE\RENDERER.OBJRELEASE\SCENE.OBJRELEASE\SUBJECT.OBJRELEASE\TRANSFORM.OBJ
^C:\USERS\ADMINISTRATOR\DESKTOP\TITANSOULS\ENGINE\UTILITY\INCLUDE\RELEASE\CAMERA.OBJ|C:\USERS\ADMINISTRATOR\DESKTOP\TITANSOULS\ENGINE\UTILITY\INCLUDE\RELEASE\COLLISION.OBJ|C:\USERS\ADMINISTRATOR\DESKTOP\TITANSOULS\ENGINE\UTILITY\INCLUDE\RELEASE\COMPONENT.OBJ|C:\USERS\ADMINISTRATOR\DESKTOP\TITANSOULS\ENGINE\UTILITY\INCLUDE\RELEASE\GAMEOBJECT.OBJ|C:\USERS\ADMINISTRATOR\DESKTOP\TITANSOULS\ENGINE\UTILITY\INCLUDE\RELEASE\INFOSUBJECT.OBJ|C:\USERS\ADMINISTRATOR\DESKTOP\TITANSOULS\ENGINE\UTILITY\INCLUDE\RELEASE\LAYER.OBJ|C:\USERS\ADMINISTRATOR\DESKTOP\TITANSOULS\ENGINE\UTILITY\INCLUDE\RELEASE\MANAGEMENT.OBJ|C:\USERS\ADMINISTRATOR\DESKTOP\TITANSOULS\ENGINE\UTILITY\INCLUDE\RELEASE\MATHMGR.OBJ|C:\USERS\ADMINISTRATOR\DESKTOP\TITANSOULS\ENGINE\UTILITY\INCLUDE\RELEASE\OBSERVER.OBJ|C:\USERS\ADMINISTRATOR\DESKTOP\TITANSOULS\ENGINE\UTILITY\INCLUDE\RELEASE\PARTICLESYSTEM.OBJ|C:\USERS\ADMINISTRATOR\DESKTOP\TITANSOULS\ENGINE\UTILITY\INCLUDE\RELEASE\PIPELINE.OBJ|C:\USERS\ADMINISTRATOR\DESKTOP\TITANSOULS\ENGINE\UTILITY\INCLUDE\RELEASE\PLAYER_STATE.OBJ|C:\USERS\ADMINISTRATOR\DESKTOP\TITANSOULS\ENGINE\UTILITY\INCLUDE\RELEASE\RENDERER.OBJ|C:\USERS\ADMINISTRATOR\DESKTOP\TITANSOULS\ENGINE\UTILITY\INCLUDE\RELEASE\SCENE.OBJ|C:\USERS\ADMINISTRATOR\DESKTOP\TITANSOULS\ENGINE\UTILITY\INCLUDE\RELEASE\SUBJECT.OBJ|C:\USERS\ADMINISTRATOR\DESKTOP\TITANSOULS\ENGINE\UTILITY\INCLUDE\RELEASE\TRANSFORM.OBJ
/OUT:"../BIN\UTILITY.DLL" /INCREMENTAL:NO /NOLOGO /LIBPATH:../../../REFERENCE/LIBRARIES /LIBPATH:"C:\PROGRAM FILES (X86)\VISUAL LEAK DETECTOR\LIB\WIN32" SYSTEM.LIB RESOURCES.LIB D3D9.LIB D3DX9.LIB DXGUID.LIB KERNEL32.LIB USER32.LIB GDI32.LIB WINSPOOL.LIB COMDLG32.LIB ADVAPI32.LIB SHELL32.LIB OLE32.LIB OLEAUT32.LIB UUID.LIB ODBC32.LIB ODBCCP32.LIB KERNEL32.LIB USER32.LIB GDI32.LIB WINSPOOL.LIB COMDLG32.LIB ADVAPI32.LIB SHELL32.LIB OLE32.LIB OLEAUT32.LIB UUID.LIB ODBC32.LIB ODBCCP32.LIB KERNEL32.LIB USER32.LIB GDI32.LIB WINSPOOL.LIB COMDLG32.LIB ADVAPI32.LIB SHELL32.LIB OLE32.LIB OLEAUT32.LIB UUID.LIB ODBC32.LIB ODBCCP32.LIB /MANIFEST /MANIFESTUAC:"level='asInvoker' uiAccess='false'" /manifest:embed /DEBUG /PDB:"../BIN\UTILITY.PDB" /SUBSYSTEM:WINDOWS /LARGEADDRESSAWARE /OPT:REF /OPT:ICF /LTCG:incremental /TLBID:1 /DYNAMICBASE /NXCOMPAT /IMPLIB:"../BIN\UTILITY.LIB" /MACHINE:X86 /SAFESEH /DLL RELEASE\CAMERA.OBJRELEASE\COLLISION.OBJRELEASE\COMPONENT.OBJRELEASE\GAMEOBJECT.OBJRELEASE\INFOSUBJECT.OBJRELEASE\LAYER.OBJRELEASE\MANAGEMENT.OBJRELEASE\MATHMGR.OBJRELEASE\OBSERVER.OBJRELEASE\PARTICLESYSTEM.OBJRELEASE\PIPELINE.OBJRELEASE\PLAYER_STATE.OBJRELEASE\RENDERER.OBJRELEASE\SCENE.OBJRELEASE\SUBJECT.OBJRELEASE\TRANSFORM.OBJ
^C:\USERS\JEONGSEONGHO\DESKTOP\90TH_SRTEAMB\BRANCHES\TITANSOULS\ENGINE\UTILITY\INCLUDE\RELEASE\CAMERA.OBJ|C:\USERS\JEONGSEONGHO\DESKTOP\90TH_SRTEAMB\BRANCHES\TITANSOULS\ENGINE\UTILITY\INCLUDE\RELEASE\COLLISION.OBJ|C:\USERS\JEONGSEONGHO\DESKTOP\90TH_SRTEAMB\BRANCHES\TITANSOULS\ENGINE\UTILITY\INCLUDE\RELEASE\COMPONENT.OBJ|C:\USERS\JEONGSEONGHO\DESKTOP\90TH_SRTEAMB\BRANCHES\TITANSOULS\ENGINE\UTILITY\INCLUDE\RELEASE\GAMEOBJECT.OBJ|C:\USERS\JEONGSEONGHO\DESKTOP\90TH_SRTEAMB\BRANCHES\TITANSOULS\ENGINE\UTILITY\INCLUDE\RELEASE\INFOSUBJECT.OBJ|C:\USERS\JEONGSEONGHO\DESKTOP\90TH_SRTEAMB\BRANCHES\TITANSOULS\ENGINE\UTILITY\INCLUDE\RELEASE\LAYER.OBJ|C:\USERS\JEONGSEONGHO\DESKTOP\90TH_SRTEAMB\BRANCHES\TITANSOULS\ENGINE\UTILITY\INCLUDE\RELEASE\MANAGEMENT.OBJ|C:\USERS\JEONGSEONGHO\DESKTOP\90TH_SRTEAMB\BRANCHES\TITANSOULS\ENGINE\UTILITY\INCLUDE\RELEASE\MATHMGR.OBJ|C:\USERS\JEONGSEONGHO\DESKTOP\90TH_SRTEAMB\BRANCHES\TITANSOULS\ENGINE\UTILITY\INCLUDE\RELEASE\OBSERVER.OBJ|C:\USERS\JEONGSEONGHO\DESKTOP\90TH_SRTEAMB\BRANCHES\TITANSOULS\ENGINE\UTILITY\INCLUDE\RELEASE\PARTICLESYSTEM.OBJ|C:\USERS\JEONGSEONGHO\DESKTOP\90TH_SRTEAMB\BRANCHES\TITANSOULS\ENGINE\UTILITY\INCLUDE\RELEASE\PIPELINE.OBJ|C:\USERS\JEONGSEONGHO\DESKTOP\90TH_SRTEAMB\BRANCHES\TITANSOULS\ENGINE\UTILITY\INCLUDE\RELEASE\PLAYER_STATE.OBJ|C:\USERS\JEONGSEONGHO\DESKTOP\90TH_SRTEAMB\BRANCHES\TITANSOULS\ENGINE\UTILITY\INCLUDE\RELEASE\RENDERER.OBJ|C:\USERS\JEONGSEONGHO\DESKTOP\90TH_SRTEAMB\BRANCHES\TITANSOULS\ENGINE\UTILITY\INCLUDE\RELEASE\SCENE.OBJ|C:\USERS\JEONGSEONGHO\DESKTOP\90TH_SRTEAMB\BRANCHES\TITANSOULS\ENGINE\UTILITY\INCLUDE\RELEASE\SUBJECT.OBJ|C:\USERS\JEONGSEONGHO\DESKTOP\90TH_SRTEAMB\BRANCHES\TITANSOULS\ENGINE\UTILITY\INCLUDE\RELEASE\TRANSFORM.OBJ
/OUT:"../BIN\UTILITY.DLL" /INCREMENTAL:NO /NOLOGO /LIBPATH:../../../REFERENCE/LIBRARIES /LIBPATH:"C:\PROGRAM FILES (X86)\VISUAL LEAK DETECTOR\LIB\WIN32" SYSTEM.LIB RESOURCES.LIB D3D9.LIB D3DX9.LIB DXGUID.LIB KERNEL32.LIB USER32.LIB GDI32.LIB WINSPOOL.LIB COMDLG32.LIB ADVAPI32.LIB SHELL32.LIB OLE32.LIB OLEAUT32.LIB UUID.LIB ODBC32.LIB ODBCCP32.LIB KERNEL32.LIB USER32.LIB GDI32.LIB WINSPOOL.LIB COMDLG32.LIB ADVAPI32.LIB SHELL32.LIB OLE32.LIB OLEAUT32.LIB UUID.LIB ODBC32.LIB ODBCCP32.LIB KERNEL32.LIB USER32.LIB GDI32.LIB WINSPOOL.LIB COMDLG32.LIB ADVAPI32.LIB SHELL32.LIB OLE32.LIB OLEAUT32.LIB UUID.LIB ODBC32.LIB ODBCCP32.LIB /MANIFEST /MANIFESTUAC:"level='asInvoker' uiAccess='false'" /manifest:embed /DEBUG /PDB:"../BIN\UTILITY.PDB" /SUBSYSTEM:WINDOWS /LARGEADDRESSAWARE /OPT:REF /OPT:ICF /LTCG:incremental /TLBID:1 /DYNAMICBASE /NXCOMPAT /IMPLIB:"../BIN\UTILITY.LIB" /MACHINE:X86 /SAFESEH /DLL RELEASE\CAMERA.OBJRELEASE\COLLISION.OBJRELEASE\COMPONENT.OBJRELEASE\GAMEOBJECT.OBJRELEASE\INFOSUBJECT.OBJRELEASE\LAYER.OBJRELEASE\MANAGEMENT.OBJRELEASE\MATHMGR.OBJRELEASE\OBSERVER.OBJRELEASE\PARTICLESYSTEM.OBJRELEASE\PIPELINE.OBJRELEASE\PLAYER_STATE.OBJRELEASE\RENDERER.OBJRELEASE\SCENE.OBJRELEASE\SUBJECT.OBJRELEASE\TRANSFORM.OBJ
^C:\USERS\ADMINISTRATOR\DESKTOP\90TH_SRTEAMB\BRANCHES\TITANSOULS (1)\ENGINE\UTILITY\INCLUDE\RELEASE\CAMERA.OBJ|C:\USERS\ADMINISTRATOR\DESKTOP\90TH_SRTEAMB\BRANCHES\TITANSOULS (1)\ENGINE\UTILITY\INCLUDE\RELEASE\COLLISION.OBJ|C:\USERS\ADMINISTRATOR\DESKTOP\90TH_SRTEAMB\BRANCHES\TITANSOULS (1)\ENGINE\UTILITY\INCLUDE\RELEASE\COMPONENT.OBJ|C:\USERS\ADMINISTRATOR\DESKTOP\90TH_SRTEAMB\BRANCHES\TITANSOULS (1)\ENGINE\UTILITY\INCLUDE\RELEASE\GAMEOBJECT.OBJ|C:\USERS\ADMINISTRATOR\DESKTOP\90TH_SRTEAMB\BRANCHES\TITANSOULS (1)\ENGINE\UTILITY\INCLUDE\RELEASE\INFOSUBJECT.OBJ|C:\USERS\ADMINISTRATOR\DESKTOP\90TH_SRTEAMB\BRANCHES\TITANSOULS (1)\ENGINE\UTILITY\INCLUDE\RELEASE\LAYER.OBJ|C:\USERS\ADMINISTRATOR\DESKTOP\90TH_SRTEAMB\BRANCHES\TITANSOULS (1)\ENGINE\UTILITY\INCLUDE\RELEASE\MANAGEMENT.OBJ|C:\USERS\ADMINISTRATOR\DESKTOP\90TH_SRTEAMB\BRANCHES\TITANSOULS (1)\ENGINE\UTILITY\INCLUDE\RELEASE\MATHMGR.OBJ|C:\USERS\ADMINISTRATOR\DESKTOP\90TH_SRTEAMB\BRANCHES\TITANSOULS (1)\ENGINE\UTILITY\INCLUDE\RELEASE\OBSERVER.OBJ|C:\USERS\ADMINISTRATOR\DESKTOP\90TH_SRTEAMB\BRANCHES\TITANSOULS (1)\ENGINE\UTILITY\INCLUDE\RELEASE\PARTICLESYSTEM.OBJ|C:\USERS\ADMINISTRATOR\DESKTOP\90TH_SRTEAMB\BRANCHES\TITANSOULS (1)\ENGINE\UTILITY\INCLUDE\RELEASE\PIPELINE.OBJ|C:\USERS\ADMINISTRATOR\DESKTOP\90TH_SRTEAMB\BRANCHES\TITANSOULS (1)\ENGINE\UTILITY\INCLUDE\RELEASE\PLAYER_STATE.OBJ|C:\USERS\ADMINISTRATOR\DESKTOP\90TH_SRTEAMB\BRANCHES\TITANSOULS (1)\ENGINE\UTILITY\INCLUDE\RELEASE\RENDERER.OBJ|C:\USERS\ADMINISTRATOR\DESKTOP\90TH_SRTEAMB\BRANCHES\TITANSOULS (1)\ENGINE\UTILITY\INCLUDE\RELEASE\SCENE.OBJ|C:\USERS\ADMINISTRATOR\DESKTOP\90TH_SRTEAMB\BRANCHES\TITANSOULS (1)\ENGINE\UTILITY\INCLUDE\RELEASE\SUBJECT.OBJ|C:\USERS\ADMINISTRATOR\DESKTOP\90TH_SRTEAMB\BRANCHES\TITANSOULS (1)\ENGINE\UTILITY\INCLUDE\RELEASE\TRANSFORM.OBJ
/OUT:"../BIN\UTILITY.DLL" /INCREMENTAL:NO /NOLOGO /LIBPATH:../../../REFERENCE/LIBRARIES /LIBPATH:"C:\PROGRAM FILES (X86)\VISUAL LEAK DETECTOR\LIB\WIN32" SYSTEM.LIB RESOURCES.LIB D3D9.LIB D3DX9.LIB DXGUID.LIB KERNEL32.LIB USER32.LIB GDI32.LIB WINSPOOL.LIB COMDLG32.LIB ADVAPI32.LIB SHELL32.LIB OLE32.LIB OLEAUT32.LIB UUID.LIB ODBC32.LIB ODBCCP32.LIB KERNEL32.LIB USER32.LIB GDI32.LIB WINSPOOL.LIB COMDLG32.LIB ADVAPI32.LIB SHELL32.LIB OLE32.LIB OLEAUT32.LIB UUID.LIB ODBC32.LIB ODBCCP32.LIB KERNEL32.LIB USER32.LIB GDI32.LIB WINSPOOL.LIB COMDLG32.LIB ADVAPI32.LIB SHELL32.LIB OLE32.LIB OLEAUT32.LIB UUID.LIB ODBC32.LIB ODBCCP32.LIB /MANIFEST /MANIFESTUAC:"level='asInvoker' uiAccess='false'" /manifest:embed /DEBUG /PDB:"../BIN\UTILITY.PDB" /SUBSYSTEM:WINDOWS /LARGEADDRESSAWARE /OPT:REF /OPT:ICF /LTCG:incremental /TLBID:1 /DYNAMICBASE /NXCOMPAT /IMPLIB:"../BIN\UTILITY.LIB" /MACHINE:X86 /SAFESEH /DLL RELEASE\CAMERA.OBJRELEASE\COLLISION.OBJRELEASE\COMPONENT.OBJRELEASE\GAMEOBJECT.OBJRELEASE\INFOSUBJECT.OBJRELEASE\LAYER.OBJRELEASE\MANAGEMENT.OBJRELEASE\MATHMGR.OBJRELEASE\OBSERVER.OBJRELEASE\PARTICLESYSTEM.OBJRELEASE\PIPELINE.OBJRELEASE\PLAYER_STATE.OBJRELEASE\RENDERER.OBJRELEASE\SCENE.OBJRELEASE\SUBJECT.OBJRELEASE\TRANSFORM.OBJ
^C:\USERS\ADMINISTRATOR\DESKTOP\90TH_SRTEAMB\BRANCHES\TITAN0116\ENGINE\UTILITY\INCLUDE\RELEASE\CAMERA.OBJ|C:\USERS\ADMINISTRATOR\DESKTOP\90TH_SRTEAMB\BRANCHES\TITAN0116\ENGINE\UTILITY\INCLUDE\RELEASE\COLLISION.OBJ|C:\USERS\ADMINISTRATOR\DESKTOP\90TH_SRTEAMB\BRANCHES\TITAN0116\ENGINE\UTILITY\INCLUDE\RELEASE\COMPONENT.OBJ|C:\USERS\ADMINISTRATOR\DESKTOP\90TH_SRTEAMB\BRANCHES\TITAN0116\ENGINE\UTILITY\INCLUDE\RELEASE\GAMEOBJECT.OBJ|C:\USERS\ADMINISTRATOR\DESKTOP\90TH_SRTEAMB\BRANCHES\TITAN0116\ENGINE\UTILITY\INCLUDE\RELEASE\INFOSUBJECT.OBJ|C:\USERS\ADMINISTRATOR\DESKTOP\90TH_SRTEAMB\BRANCHES\TITAN0116\ENGINE\UTILITY\INCLUDE\RELEASE\LAYER.OBJ|C:\USERS\ADMINISTRATOR\DESKTOP\90TH_SRTEAMB\BRANCHES\TITAN0116\ENGINE\UTILITY\INCLUDE\RELEASE\MANAGEMENT.OBJ|C:\USERS\ADMINISTRATOR\DESKTOP\90TH_SRTEAMB\BRANCHES\TITAN0116\ENGINE\UTILITY\INCLUDE\RELEASE\MATHMGR.OBJ|C:\USERS\ADMINISTRATOR\DESKTOP\90TH_SRTEAMB\BRANCHES\TITAN0116\ENGINE\UTILITY\INCLUDE\RELEASE\OBSERVER.OBJ|C:\USERS\ADMINISTRATOR\DESKTOP\90TH_SRTEAMB\BRANCHES\TITAN0116\ENGINE\UTILITY\INCLUDE\RELEASE\PARTICLESYSTEM.OBJ|C:\USERS\ADMINISTRATOR\DESKTOP\90TH_SRTEAMB\BRANCHES\TITAN0116\ENGINE\UTILITY\INCLUDE\RELEASE\PIPELINE.OBJ|C:\USERS\ADMINISTRATOR\DESKTOP\90TH_SRTEAMB\BRANCHES\TITAN0116\ENGINE\UTILITY\INCLUDE\RELEASE\PLAYER_STATE.OBJ|C:\USERS\ADMINISTRATOR\DESKTOP\90TH_SRTEAMB\BRANCHES\TITAN0116\ENGINE\UTILITY\INCLUDE\RELEASE\RENDERER.OBJ|C:\USERS\ADMINISTRATOR\DESKTOP\90TH_SRTEAMB\BRANCHES\TITAN0116\ENGINE\UTILITY\INCLUDE\RELEASE\SCENE.OBJ|C:\USERS\ADMINISTRATOR\DESKTOP\90TH_SRTEAMB\BRANCHES\TITAN0116\ENGINE\UTILITY\INCLUDE\RELEASE\SUBJECT.OBJ|C:\USERS\ADMINISTRATOR\DESKTOP\90TH_SRTEAMB\BRANCHES\TITAN0116\ENGINE\UTILITY\INCLUDE\RELEASE\TRANSFORM.OBJ
/OUT:"../BIN\UTILITY.DLL" /INCREMENTAL:NO /NOLOGO /LIBPATH:../../../REFERENCE/LIBRARIES /LIBPATH:"C:\PROGRAM FILES (X86)\VISUAL LEAK DETECTOR\LIB\WIN32" SYSTEM.LIB RESOURCES.LIB D3D9.LIB D3DX9.LIB DXGUID.LIB KERNEL32.LIB USER32.LIB GDI32.LIB WINSPOOL.LIB COMDLG32.LIB ADVAPI32.LIB SHELL32.LIB OLE32.LIB OLEAUT32.LIB UUID.LIB ODBC32.LIB ODBCCP32.LIB KERNEL32.LIB USER32.LIB GDI32.LIB WINSPOOL.LIB COMDLG32.LIB ADVAPI32.LIB SHELL32.LIB OLE32.LIB OLEAUT32.LIB UUID.LIB ODBC32.LIB ODBCCP32.LIB KERNEL32.LIB USER32.LIB GDI32.LIB WINSPOOL.LIB COMDLG32.LIB ADVAPI32.LIB SHELL32.LIB OLE32.LIB OLEAUT32.LIB UUID.LIB ODBC32.LIB ODBCCP32.LIB /MANIFEST /MANIFESTUAC:"level='asInvoker' uiAccess='false'" /manifest:embed /DEBUG /PDB:"../BIN\UTILITY.PDB" /SUBSYSTEM:WINDOWS /LARGEADDRESSAWARE /OPT:REF /OPT:ICF /LTCG:incremental /TLBID:1 /DYNAMICBASE /NXCOMPAT /IMPLIB:"../BIN\UTILITY.LIB" /MACHINE:X86 /SAFESEH /DLL RELEASE\CAMERA.OBJRELEASE\COLLISION.OBJRELEASE\COMPONENT.OBJRELEASE\GAMEOBJECT.OBJRELEASE\INFOSUBJECT.OBJRELEASE\LAYER.OBJRELEASE\MANAGEMENT.OBJRELEASE\MATHMGR.OBJRELEASE\OBSERVER.OBJRELEASE\PARTICLESYSTEM.OBJRELEASE\PIPELINE.OBJRELEASE\PLAYER_STATE.OBJRELEASE\RENDERER.OBJRELEASE\SCENE.OBJRELEASE\SUBJECT.OBJRELEASE\TRANSFORM.OBJ
^C:\USERS\JEONGSEONGHO\DESKTOP\90TH_SRTEAMB\BRANCHES\TITAN0118\ENGINE\UTILITY\INCLUDE\RELEASE\CAMERA.OBJ|C:\USERS\JEONGSEONGHO\DESKTOP\90TH_SRTEAMB\BRANCHES\TITAN0118\ENGINE\UTILITY\INCLUDE\RELEASE\COLLISION.OBJ|C:\USERS\JEONGSEONGHO\DESKTOP\90TH_SRTEAMB\BRANCHES\TITAN0118\ENGINE\UTILITY\INCLUDE\RELEASE\COMPONENT.OBJ|C:\USERS\JEONGSEONGHO\DESKTOP\90TH_SRTEAMB\BRANCHES\TITAN0118\ENGINE\UTILITY\INCLUDE\RELEASE\GAMEOBJECT.OBJ|C:\USERS\JEONGSEONGHO\DESKTOP\90TH_SRTEAMB\BRANCHES\TITAN0118\ENGINE\UTILITY\INCLUDE\RELEASE\INFOSUBJECT.OBJ|C:\USERS\JEONGSEONGHO\DESKTOP\90TH_SRTEAMB\BRANCHES\TITAN0118\ENGINE\UTILITY\INCLUDE\RELEASE\LAYER.OBJ|C:\USERS\JEONGSEONGHO\DESKTOP\90TH_SRTEAMB\BRANCHES\TITAN0118\ENGINE\UTILITY\INCLUDE\RELEASE\MANAGEMENT.OBJ|C:\USERS\JEONGSEONGHO\DESKTOP\90TH_SRTEAMB\BRANCHES\TITAN0118\ENGINE\UTILITY\INCLUDE\RELEASE\MATHMGR.OBJ|C:\USERS\JEONGSEONGHO\DESKTOP\90TH_SRTEAMB\BRANCHES\TITAN0118\ENGINE\UTILITY\INCLUDE\RELEASE\OBSERVER.OBJ|C:\USERS\JEONGSEONGHO\DESKTOP\90TH_SRTEAMB\BRANCHES\TITAN0118\ENGINE\UTILITY\INCLUDE\RELEASE\PARTICLESYSTEM.OBJ|C:\USERS\JEONGSEONGHO\DESKTOP\90TH_SRTEAMB\BRANCHES\TITAN0118\ENGINE\UTILITY\INCLUDE\RELEASE\PIPELINE.OBJ|C:\USERS\JEONGSEONGHO\DESKTOP\90TH_SRTEAMB\BRANCHES\TITAN0118\ENGINE\UTILITY\INCLUDE\RELEASE\PLAYER_STATE.OBJ|C:\USERS\JEONGSEONGHO\DESKTOP\90TH_SRTEAMB\BRANCHES\TITAN0118\ENGINE\UTILITY\INCLUDE\RELEASE\RENDERER.OBJ|C:\USERS\JEONGSEONGHO\DESKTOP\90TH_SRTEAMB\BRANCHES\TITAN0118\ENGINE\UTILITY\INCLUDE\RELEASE\SCENE.OBJ|C:\USERS\JEONGSEONGHO\DESKTOP\90TH_SRTEAMB\BRANCHES\TITAN0118\ENGINE\UTILITY\INCLUDE\RELEASE\SUBJECT.OBJ|C:\USERS\JEONGSEONGHO\DESKTOP\90TH_SRTEAMB\BRANCHES\TITAN0118\ENGINE\UTILITY\INCLUDE\RELEASE\TRANSFORM.OBJ
/OUT:"../BIN\UTILITY.DLL" /INCREMENTAL:NO /NOLOGO /LIBPATH:../../../REFERENCE/LIBRARIES /LIBPATH:"C:\PROGRAM FILES (X86)\VISUAL LEAK DETECTOR\LIB\WIN32" SYSTEM.LIB RESOURCES.LIB D3D9.LIB D3DX9.LIB DXGUID.LIB KERNEL32.LIB USER32.LIB GDI32.LIB WINSPOOL.LIB COMDLG32.LIB ADVAPI32.LIB SHELL32.LIB OLE32.LIB OLEAUT32.LIB UUID.LIB ODBC32.LIB ODBCCP32.LIB KERNEL32.LIB USER32.LIB GDI32.LIB WINSPOOL.LIB COMDLG32.LIB ADVAPI32.LIB SHELL32.LIB OLE32.LIB OLEAUT32.LIB UUID.LIB ODBC32.LIB ODBCCP32.LIB KERNEL32.LIB USER32.LIB GDI32.LIB WINSPOOL.LIB COMDLG32.LIB ADVAPI32.LIB SHELL32.LIB OLE32.LIB OLEAUT32.LIB UUID.LIB ODBC32.LIB ODBCCP32.LIB /MANIFEST /MANIFESTUAC:"level='asInvoker' uiAccess='false'" /manifest:embed /DEBUG /PDB:"../BIN\UTILITY.PDB" /SUBSYSTEM:WINDOWS /LARGEADDRESSAWARE /OPT:REF /OPT:ICF /LTCG:incremental /TLBID:1 /DYNAMICBASE /NXCOMPAT /IMPLIB:"../BIN\UTILITY.LIB" /MACHINE:X86 /SAFESEH /DLL RELEASE\CAMERA.OBJRELEASE\COLLISION.OBJRELEASE\COMPONENT.OBJRELEASE\GAMEOBJECT.OBJRELEASE\INFOSUBJECT.OBJRELEASE\LAYER.OBJRELEASE\MANAGEMENT.OBJRELEASE\MATHMGR.OBJRELEASE\OBSERVER.OBJRELEASE\PARTICLESYSTEM.OBJRELEASE\PIPELINE.OBJRELEASE\PLAYER_STATE.OBJRELEASE\RENDERER.OBJRELEASE\SCENE.OBJRELEASE\SUBJECT.OBJRELEASE\TRANSFORM.OBJ
^C:\USERS\ADMINISTRATOR\DESKTOP\버그잡자\TITAN0118\ENGINE\UTILITY\INCLUDE\RELEASE\CAMERA.OBJ|C:\USERS\ADMINISTRATOR\DESKTOP\버그잡자\TITAN0118\ENGINE\UTILITY\INCLUDE\RELEASE\COLLISION.OBJ|C:\USERS\ADMINISTRATOR\DESKTOP\버그잡자\TITAN0118\ENGINE\UTILITY\INCLUDE\RELEASE\COMPONENT.OBJ|C:\USERS\ADMINISTRATOR\DESKTOP\버그잡자\TITAN0118\ENGINE\UTILITY\INCLUDE\RELEASE\GAMEOBJECT.OBJ|C:\USERS\ADMINISTRATOR\DESKTOP\버그잡자\TITAN0118\ENGINE\UTILITY\INCLUDE\RELEASE\INFOSUBJECT.OBJ|C:\USERS\ADMINISTRATOR\DESKTOP\버그잡자\TITAN0118\ENGINE\UTILITY\INCLUDE\RELEASE\LAYER.OBJ|C:\USERS\ADMINISTRATOR\DESKTOP\버그잡자\TITAN0118\ENGINE\UTILITY\INCLUDE\RELEASE\MANAGEMENT.OBJ|C:\USERS\ADMINISTRATOR\DESKTOP\버그잡자\TITAN0118\ENGINE\UTILITY\INCLUDE\RELEASE\MATHMGR.OBJ|C:\USERS\ADMINISTRATOR\DESKTOP\버그잡자\TITAN0118\ENGINE\UTILITY\INCLUDE\RELEASE\OBSERVER.OBJ|C:\USERS\ADMINISTRATOR\DESKTOP\버그잡자\TITAN0118\ENGINE\UTILITY\INCLUDE\RELEASE\PARTICLESYSTEM.OBJ|C:\USERS\ADMINISTRATOR\DESKTOP\버그잡자\TITAN0118\ENGINE\UTILITY\INCLUDE\RELEASE\PIPELINE.OBJ|C:\USERS\ADMINISTRATOR\DESKTOP\버그잡자\TITAN0118\ENGINE\UTILITY\INCLUDE\RELEASE\PLAYER_STATE.OBJ|C:\USERS\ADMINISTRATOR\DESKTOP\버그잡자\TITAN0118\ENGINE\UTILITY\INCLUDE\RELEASE\RENDERER.OBJ|C:\USERS\ADMINISTRATOR\DESKTOP\버그잡자\TITAN0118\ENGINE\UTILITY\INCLUDE\RELEASE\SCENE.OBJ|C:\USERS\ADMINISTRATOR\DESKTOP\버그잡자\TITAN0118\ENGINE\UTILITY\INCLUDE\RELEASE\SUBJECT.OBJ|C:\USERS\ADMINISTRATOR\DESKTOP\버그잡자\TITAN0118\ENGINE\UTILITY\INCLUDE\RELEASE\TRANSFORM.OBJ
/OUT:"../BIN\UTILITY.DLL" /INCREMENTAL:NO /NOLOGO /LIBPATH:../../../REFERENCE/LIBRARIES /LIBPATH:"C:\PROGRAM FILES (X86)\VISUAL LEAK DETECTOR\LIB\WIN32" SYSTEM.LIB RESOURCES.LIB D3D9.LIB D3DX9.LIB DXGUID.LIB KERNEL32.LIB USER32.LIB GDI32.LIB WINSPOOL.LIB COMDLG32.LIB ADVAPI32.LIB SHELL32.LIB OLE32.LIB OLEAUT32.LIB UUID.LIB ODBC32.LIB ODBCCP32.LIB KERNEL32.LIB USER32.LIB GDI32.LIB WINSPOOL.LIB COMDLG32.LIB ADVAPI32.LIB SHELL32.LIB OLE32.LIB OLEAUT32.LIB UUID.LIB ODBC32.LIB ODBCCP32.LIB KERNEL32.LIB USER32.LIB GDI32.LIB WINSPOOL.LIB COMDLG32.LIB ADVAPI32.LIB SHELL32.LIB OLE32.LIB OLEAUT32.LIB UUID.LIB ODBC32.LIB ODBCCP32.LIB /MANIFEST /MANIFESTUAC:"level='asInvoker' uiAccess='false'" /manifest:embed /DEBUG /PDB:"../BIN\UTILITY.PDB" /SUBSYSTEM:WINDOWS /LARGEADDRESSAWARE /OPT:REF /OPT:ICF /LTCG:incremental /TLBID:1 /DYNAMICBASE /NXCOMPAT /IMPLIB:"../BIN\UTILITY.LIB" /MACHINE:X86 /SAFESEH /DLL RELEASE\CAMERA.OBJRELEASE\COLLISION.OBJRELEASE\COMPONENT.OBJRELEASE\GAMEOBJECT.OBJRELEASE\INFOSUBJECT.OBJRELEASE\LAYER.OBJRELEASE\MANAGEMENT.OBJRELEASE\MATHMGR.OBJRELEASE\OBSERVER.OBJRELEASE\PARTICLESYSTEM.OBJRELEASE\PIPELINE.OBJRELEASE\PLAYER_STATE.OBJRELEASE\RENDERER.OBJRELEASE\SCENE.OBJRELEASE\SUBJECT.OBJRELEASE\TRANSFORM.OBJ
^C:\USERS\ADMINISTRATOR\DESKTOP\90TH_SRTEAMB\BRANCHES\TITAN0121\ENGINE\UTILITY\INCLUDE\RELEASE\CAMERA.OBJ|C:\USERS\ADMINISTRATOR\DESKTOP\90TH_SRTEAMB\BRANCHES\TITAN0121\ENGINE\UTILITY\INCLUDE\RELEASE\COLLISION.OBJ|C:\USERS\ADMINISTRATOR\DESKTOP\90TH_SRTEAMB\BRANCHES\TITAN0121\ENGINE\UTILITY\INCLUDE\RELEASE\COMPONENT.OBJ|C:\USERS\ADMINISTRATOR\DESKTOP\90TH_SRTEAMB\BRANCHES\TITAN0121\ENGINE\UTILITY\INCLUDE\RELEASE\GAMEOBJECT.OBJ|C:\USERS\ADMINISTRATOR\DESKTOP\90TH_SRTEAMB\BRANCHES\TITAN0121\ENGINE\UTILITY\INCLUDE\RELEASE\INFOSUBJECT.OBJ|C:\USERS\ADMINISTRATOR\DESKTOP\90TH_SRTEAMB\BRANCHES\TITAN0121\ENGINE\UTILITY\INCLUDE\RELEASE\LAYER.OBJ|C:\USERS\ADMINISTRATOR\DESKTOP\90TH_SRTEAMB\BRANCHES\TITAN0121\ENGINE\UTILITY\INCLUDE\RELEASE\MANAGEMENT.OBJ|C:\USERS\ADMINISTRATOR\DESKTOP\90TH_SRTEAMB\BRANCHES\TITAN0121\ENGINE\UTILITY\INCLUDE\RELEASE\MATHMGR.OBJ|C:\USERS\ADMINISTRATOR\DESKTOP\90TH_SRTEAMB\BRANCHES\TITAN0121\ENGINE\UTILITY\INCLUDE\RELEASE\OBSERVER.OBJ|C:\USERS\ADMINISTRATOR\DESKTOP\90TH_SRTEAMB\BRANCHES\TITAN0121\ENGINE\UTILITY\INCLUDE\RELEASE\PARTICLESYSTEM.OBJ|C:\USERS\ADMINISTRATOR\DESKTOP\90TH_SRTEAMB\BRANCHES\TITAN0121\ENGINE\UTILITY\INCLUDE\RELEASE\PIPELINE.OBJ|C:\USERS\ADMINISTRATOR\DESKTOP\90TH_SRTEAMB\BRANCHES\TITAN0121\ENGINE\UTILITY\INCLUDE\RELEASE\PLAYER_STATE.OBJ|C:\USERS\ADMINISTRATOR\DESKTOP\90TH_SRTEAMB\BRANCHES\TITAN0121\ENGINE\UTILITY\INCLUDE\RELEASE\RENDERER.OBJ|C:\USERS\ADMINISTRATOR\DESKTOP\90TH_SRTEAMB\BRANCHES\TITAN0121\ENGINE\UTILITY\INCLUDE\RELEASE\SCENE.OBJ|C:\USERS\ADMINISTRATOR\DESKTOP\90TH_SRTEAMB\BRANCHES\TITAN0121\ENGINE\UTILITY\INCLUDE\RELEASE\SUBJECT.OBJ|C:\USERS\ADMINISTRATOR\DESKTOP\90TH_SRTEAMB\BRANCHES\TITAN0121\ENGINE\UTILITY\INCLUDE\RELEASE\TRANSFORM.OBJ
/OUT:"../BIN\UTILITY.DLL" /INCREMENTAL:NO /NOLOGO /LIBPATH:../../../REFERENCE/LIBRARIES /LIBPATH:"C:\PROGRAM FILES (X86)\VISUAL LEAK DETECTOR\LIB\WIN32" SYSTEM.LIB RESOURCES.LIB D3D9.LIB D3DX9.LIB DXGUID.LIB KERNEL32.LIB USER32.LIB GDI32.LIB WINSPOOL.LIB COMDLG32.LIB ADVAPI32.LIB SHELL32.LIB OLE32.LIB OLEAUT32.LIB UUID.LIB ODBC32.LIB ODBCCP32.LIB KERNEL32.LIB USER32.LIB GDI32.LIB WINSPOOL.LIB COMDLG32.LIB ADVAPI32.LIB SHELL32.LIB OLE32.LIB OLEAUT32.LIB UUID.LIB ODBC32.LIB ODBCCP32.LIB KERNEL32.LIB USER32.LIB GDI32.LIB WINSPOOL.LIB COMDLG32.LIB ADVAPI32.LIB SHELL32.LIB OLE32.LIB OLEAUT32.LIB UUID.LIB ODBC32.LIB ODBCCP32.LIB /MANIFEST /MANIFESTUAC:"level='asInvoker' uiAccess='false'" /manifest:embed /DEBUG /PDB:"../BIN\UTILITY.PDB" /SUBSYSTEM:WINDOWS /LARGEADDRESSAWARE /OPT:REF /OPT:ICF /LTCG:incremental /TLBID:1 /DYNAMICBASE /NXCOMPAT /IMPLIB:"../BIN\UTILITY.LIB" /MACHINE:X86 /SAFESEH /DLL RELEASE\CAMERA.OBJRELEASE\COLLISION.OBJRELEASE\COMPONENT.OBJRELEASE\GAMEOBJECT.OBJRELEASE\INFOSUBJECT.OBJRELEASE\LAYER.OBJRELEASE\MANAGEMENT.OBJRELEASE\MATHMGR.OBJRELEASE\OBSERVER.OBJRELEASE\PARTICLESYSTEM.OBJRELEASE\PIPELINE.OBJRELEASE\PLAYER_STATE.OBJRELEASE\RENDERER.OBJRELEASE\SCENE.OBJRELEASE\SUBJECT.OBJRELEASE\TRANSFORM.OBJ
