^C:\USERS\ADMINISTRATOR\DESKTOP\90TH_SRTEAMB\BRANCHES\TITAN0121\ENGINE\SYSTEM\INCLUDE\RELEASE\GRAPHICDEV.OBJ|C:\USERS\ADMINISTRATOR\DESKTOP\90TH_SRTEAMB\BRANCHES\TITAN0121\ENGINE\SYSTEM\INCLUDE\RELEASE\KEYMGR.OBJ|C:\USERS\ADMINISTRATOR\DESKTOP\90TH_SRTEAMB\BRANCHES\TITAN0121\ENGINE\SYSTEM\INCLUDE\RELEASE\TIMEMGR.OBJ
C:\USERS\ADMINISTRATOR\DESKTOP\90TH_SRTEAMB\BRANCHES\TITAN0121\ENGINE\SYSTEM\BIN\SYSTEM.DLL
C:\USERS\ADMINISTRATOR\DESKTOP\90TH_SRTEAMB\BRANCHES\TITAN0121\ENGINE\SYSTEM\BIN\SYSTEM.IPDB
C:\USERS\ADMINISTRATOR\DESKTOP\90TH_SRTEAMB\BRANCHES\TITAN0121\ENGINE\SYSTEM\BIN\SYSTEM.IOBJ
C:\USERS\ADMINISTRATOR\DESKTOP\90TH_SRTEAMB\BRANCHES\TITAN0121\ENGINE\SYSTEM\BIN\SYSTEM.PDB
