^C:\USERS\ADMINISTRATOR\DESKTOP\90TH_SRTEAMB\BRANCHES\TITAN0121\ENGINE\SYSTEM\CODE\GRAPHICDEV.CPP|C:\USERS\ADMINISTRATOR\DESKTOP\90TH_SRTEAMB\BRANCHES\TITAN0121\ENGINE\SYSTEM\CODE\KEYMGR.CPP|C:\USERS\ADMINISTRATOR\DESKTOP\90TH_SRTEAMB\BRANCHES\TITAN0121\ENGINE\SYSTEM\CODE\TIMEMGR.CPP
C:\USERS\ADMINISTRATOR\DESKTOP\90TH_SRTEAMB\BRANCHES\TITAN0121\ENGINE\SYSTEM\INCLUDE\DEBUG\VC140.PDB
C:\USERS\ADMINISTRATOR\DESKTOP\90TH_SRTEAMB\BRANCHES\TITAN0121\ENGINE\SYSTEM\INCLUDE\DEBUG\VC140.IDB
C:\USERS\ADMINISTRATOR\DESKTOP\90TH_SRTEAMB\BRANCHES\TITAN0121\ENGINE\SYSTEM\INCLUDE\DEBUG\GRAPHICDEV.OBJ
C:\USERS\ADMINISTRATOR\DESKTOP\90TH_SRTEAMB\BRANCHES\TITAN0121\ENGINE\SYSTEM\INCLUDE\DEBUG\KEYMGR.OBJ
C:\USERS\ADMINISTRATOR\DESKTOP\90TH_SRTEAMB\BRANCHES\TITAN0121\ENGINE\SYSTEM\INCLUDE\DEBUG\TIMEMGR.OBJ
^C:\USERS\ADMINISTRATOR\DESKTOP\90TH_SRTEAMB\BRANCHES\TITAN0121\ENGINE\SYSTEM\CODE\GRAPHICDEV.CPP
C:\USERS\ADMINISTRATOR\DESKTOP\90TH_SRTEAMB\BRANCHES\TITAN0121\ENGINE\SYSTEM\INCLUDE\DEBUG\VC140.PDB
^C:\USERS\ADMINISTRATOR\DESKTOP\90TH_SRTEAMB\BRANCHES\TITAN0121\ENGINE\SYSTEM\CODE\KEYMGR.CPP
C:\USERS\ADMINISTRATOR\DESKTOP\90TH_SRTEAMB\BRANCHES\TITAN0121\ENGINE\SYSTEM\INCLUDE\DEBUG\VC140.PDB
^C:\USERS\ADMINISTRATOR\DESKTOP\90TH_SRTEAMB\BRANCHES\TITAN0121\ENGINE\SYSTEM\CODE\TIMEMGR.CPP
C:\USERS\ADMINISTRATOR\DESKTOP\90TH_SRTEAMB\BRANCHES\TITAN0121\ENGINE\SYSTEM\INCLUDE\DEBUG\VC140.PDB
