^C:\Users\Administrator\Desktop\90th_SRTeamB\branches\Titan0121\Engine\System\Include\System.vcxproj
C:\Users\Administrator\Desktop\90th_SRTeamB\branches\Titan0121\Engine\System\Bin\System.lib
C:\Users\Administrator\Desktop\90th_SRTeamB\branches\Titan0121\Engine\System\Bin\System.exp
