^C:\USERS\CHAN\DESKTOP\TITANSOULS\ENGINE\UTILITY\CODE\CAMERA.CPP|C:\USERS\CHAN\DESKTOP\TITANSOULS\ENGINE\UTILITY\CODE\COLLISION.CPP|C:\USERS\CHAN\DESKTOP\TITANSOULS\ENGINE\UTILITY\CODE\COMPONENT.CPP|C:\USERS\CHAN\DESKTOP\TITANSOULS\ENGINE\UTILITY\CODE\GAMEOBJECT.CPP|C:\USERS\CHAN\DESKTOP\TITANSOULS\ENGINE\UTILITY\CODE\INFOSUBJECT.CPP|C:\USERS\CHAN\DESKTOP\TITANSOULS\ENGINE\UTILITY\CODE\LAYER.CPP|C:\USERS\CHAN\DESKTOP\TITANSOULS\ENGINE\UTILITY\CODE\MANAGEMENT.CPP|C:\USERS\CHAN\DESKTOP\TITANSOULS\ENGINE\UTILITY\CODE\MATHMGR.CPP|C:\USERS\CHAN\DESKTOP\TITANSOULS\ENGINE\UTILITY\CODE\OBSERVER.CPP|C:\USERS\CHAN\DESKTOP\TITANSOULS\ENGINE\UTILITY\CODE\PIPELINE.CPP|C:\USERS\CHAN\DESKTOP\TITANSOULS\ENGINE\UTILITY\CODE\RENDERER.CPP|C:\USERS\CHAN\DESKTOP\TITANSOULS\ENGINE\UTILITY\CODE\SCENE.CPP|C:\USERS\CHAN\DESKTOP\TITANSOULS\ENGINE\UTILITY\CODE\SUBJECT.CPP|C:\USERS\CHAN\DESKTOP\TITANSOULS\ENGINE\UTILITY\CODE\TRANSFORM.CPP
C:\USERS\CHAN\DESKTOP\TITANSOULS\ENGINE\UTILITY\INCLUDE\X64\DEBUG\VC140.PDB
C:\USERS\CHAN\DESKTOP\TITANSOULS\ENGINE\UTILITY\INCLUDE\X64\DEBUG\VC140.IDB
^C:\USERS\CHAN\DESKTOP\TITANSOULS\ENGINE\UTILITY\CODE\CAMERA.CPP
C:\USERS\CHAN\DESKTOP\TITANSOULS\ENGINE\UTILITY\INCLUDE\X64\DEBUG\VC140.PDB
^C:\USERS\CHAN\DESKTOP\TITANSOULS\ENGINE\UTILITY\CODE\COLLISION.CPP
C:\USERS\CHAN\DESKTOP\TITANSOULS\ENGINE\UTILITY\INCLUDE\X64\DEBUG\VC140.PDB
^C:\USERS\CHAN\DESKTOP\TITANSOULS\ENGINE\UTILITY\CODE\COMPONENT.CPP
C:\USERS\CHAN\DESKTOP\TITANSOULS\ENGINE\UTILITY\INCLUDE\X64\DEBUG\VC140.PDB
^C:\USERS\CHAN\DESKTOP\TITANSOULS\ENGINE\UTILITY\CODE\GAMEOBJECT.CPP
C:\USERS\CHAN\DESKTOP\TITANSOULS\ENGINE\UTILITY\INCLUDE\X64\DEBUG\VC140.PDB
^C:\USERS\CHAN\DESKTOP\TITANSOULS\ENGINE\UTILITY\CODE\INFOSUBJECT.CPP
C:\USERS\CHAN\DESKTOP\TITANSOULS\ENGINE\UTILITY\INCLUDE\X64\DEBUG\VC140.PDB
^C:\USERS\CHAN\DESKTOP\TITANSOULS\ENGINE\UTILITY\CODE\LAYER.CPP
C:\USERS\CHAN\DESKTOP\TITANSOULS\ENGINE\UTILITY\INCLUDE\X64\DEBUG\VC140.PDB
^C:\USERS\CHAN\DESKTOP\TITANSOULS\ENGINE\UTILITY\CODE\MANAGEMENT.CPP
C:\USERS\CHAN\DESKTOP\TITANSOULS\ENGINE\UTILITY\INCLUDE\X64\DEBUG\VC140.PDB
^C:\USERS\CHAN\DESKTOP\TITANSOULS\ENGINE\UTILITY\CODE\MATHMGR.CPP
C:\USERS\CHAN\DESKTOP\TITANSOULS\ENGINE\UTILITY\INCLUDE\X64\DEBUG\VC140.PDB
^C:\USERS\CHAN\DESKTOP\TITANSOULS\ENGINE\UTILITY\CODE\OBSERVER.CPP
C:\USERS\CHAN\DESKTOP\TITANSOULS\ENGINE\UTILITY\INCLUDE\X64\DEBUG\VC140.PDB
^C:\USERS\CHAN\DESKTOP\TITANSOULS\ENGINE\UTILITY\CODE\PIPELINE.CPP
C:\USERS\CHAN\DESKTOP\TITANSOULS\ENGINE\UTILITY\INCLUDE\X64\DEBUG\VC140.PDB
^C:\USERS\CHAN\DESKTOP\TITANSOULS\ENGINE\UTILITY\CODE\RENDERER.CPP
C:\USERS\CHAN\DESKTOP\TITANSOULS\ENGINE\UTILITY\INCLUDE\X64\DEBUG\VC140.PDB
^C:\USERS\CHAN\DESKTOP\TITANSOULS\ENGINE\UTILITY\CODE\SCENE.CPP
C:\USERS\CHAN\DESKTOP\TITANSOULS\ENGINE\UTILITY\INCLUDE\X64\DEBUG\VC140.PDB
^C:\USERS\CHAN\DESKTOP\TITANSOULS\ENGINE\UTILITY\CODE\SUBJECT.CPP
C:\USERS\CHAN\DESKTOP\TITANSOULS\ENGINE\UTILITY\INCLUDE\X64\DEBUG\VC140.PDB
^C:\USERS\CHAN\DESKTOP\TITANSOULS\ENGINE\UTILITY\CODE\TRANSFORM.CPP
C:\USERS\CHAN\DESKTOP\TITANSOULS\ENGINE\UTILITY\INCLUDE\X64\DEBUG\VC140.PDB
