^C:\USERS\ADMINISTRATOR\DESKTOP\90TH_SRTEAMB\BRANCHES\TITAN0121\ENGINE\RESOURCES\INCLUDE\DEBUG\CROSSTEX.OBJ|C:\USERS\ADMINISTRATOR\DESKTOP\90TH_SRTEAMB\BRANCHES\TITAN0121\ENGINE\RESOURCES\INCLUDE\DEBUG\CUBETEX.OBJ|C:\USERS\ADMINISTRATOR\DESKTOP\90TH_SRTEAMB\BRANCHES\TITAN0121\ENGINE\RESOURCES\INCLUDE\DEBUG\PLANETEX.OBJ|C:\USERS\ADMINISTRATOR\DESKTOP\90TH_SRTEAMB\BRANCHES\TITAN0121\ENGINE\RESOURCES\INCLUDE\DEBUG\RCCOL.OBJ|C:\USERS\ADMINISTRATOR\DESKTOP\90TH_SRTEAMB\BRANCHES\TITAN0121\ENGINE\RESOURCES\INCLUDE\DEBUG\RCTEX.OBJ|C:\USERS\ADMINISTRATOR\DESKTOP\90TH_SRTEAMB\BRANCHES\TITAN0121\ENGINE\RESOURCES\INCLUDE\DEBUG\RCTEXZ.OBJ|C:\USERS\ADMINISTRATOR\DESKTOP\90TH_SRTEAMB\BRANCHES\TITAN0121\ENGINE\RESOURCES\INCLUDE\DEBUG\RESOURCES.OBJ|C:\USERS\ADMINISTRATOR\DESKTOP\90TH_SRTEAMB\BRANCHES\TITAN0121\ENGINE\RESOURCES\INCLUDE\DEBUG\RESOURCESMGR.OBJ|C:\USERS\ADMINISTRATOR\DESKTOP\90TH_SRTEAMB\BRANCHES\TITAN0121\ENGINE\RESOURCES\INCLUDE\DEBUG\TERRAINCOL.OBJ|C:\USERS\ADMINISTRATOR\DESKTOP\90TH_SRTEAMB\BRANCHES\TITAN0121\ENGINE\RESOURCES\INCLUDE\DEBUG\TERRAINTEX.OBJ|C:\USERS\ADMINISTRATOR\DESKTOP\90TH_SRTEAMB\BRANCHES\TITAN0121\ENGINE\RESOURCES\INCLUDE\DEBUG\TEXTURE.OBJ|C:\USERS\ADMINISTRATOR\DESKTOP\90TH_SRTEAMB\BRANCHES\TITAN0121\ENGINE\RESOURCES\INCLUDE\DEBUG\TRICOL.OBJ|C:\USERS\ADMINISTRATOR\DESKTOP\90TH_SRTEAMB\BRANCHES\TITAN0121\ENGINE\RESOURCES\INCLUDE\DEBUG\VIBUFFER.OBJ
C:\USERS\ADMINISTRATOR\DESKTOP\90TH_SRTEAMB\BRANCHES\TITAN0121\ENGINE\RESOURCES\BIN\RESOURCES.ILK
C:\USERS\ADMINISTRATOR\DESKTOP\90TH_SRTEAMB\BRANCHES\TITAN0121\ENGINE\RESOURCES\BIN\RESOURCES.DLL
C:\USERS\ADMINISTRATOR\DESKTOP\90TH_SRTEAMB\BRANCHES\TITAN0121\ENGINE\RESOURCES\BIN\RESOURCES.PDB
